<?xml version="1.0"?>
<svg xmlns="http://www.w3.org/2000/svg" id="unlock-screen" width="317.23" height="285.41" >
<defs>
    <style>.cls-1{fill:#00564e;}.cls-2,.cls-3{fill:#a31735;}.cls-3,.cls-4,.cls-5{writing-mode:tb;font-family:Franklin Gothic Medium;}.cls-3,.cls-5{text-orientation:upright;glyph-orientation-vertical:0deg;}.cls-3{font-size:30.82px;}.cls-4{text-orientation:sideways-right;glyph-orientation-vertical:90deg;}.cls-4,.cls-5{font-size:19.52px;fill:#dcfffa;}</style>
</defs>
<title>slide-to-unlock</title>
<g>
    <circle id="logo-base" class="cls-1" cx="164.5" cy="155.72" r="119"/>
    <circle id="logo-accent" class="cls-2" cx="71.5" cy="84.22" r="71.5"/>
    <g id="spin-text">
        <text class="cls-3" transform="matrix(-0.13, -0.99, 0.99, -0.13, 133.54, 20.61)">S</text>
        <text class="cls-3" transform="translate(163.54 16.47) rotate(-85.01)">P</text>
        <text class="cls-3" transform="matrix(0.31, -0.95, 0.95, 0.31, 193.72, 19.04)">I</text>
        <text class="cls-3" transform="matrix(0.51, -0.86, 0.86, 0.51, 222.53, 28.3)">N</text>
        <text class="cls-4" transform="matrix(0.62, -0.78, 0.78, 0.62, 244.15, 49.7)">
        </text>
        <text class="cls-4" transform="matrix(0.65, -0.76, 0.76, 0.65, 247.72, 52.52)">
        </text>
        <text class="cls-5" transform="translate(255.7 50.3) rotate(-44.6)">T</text>
        <text class="cls-5" transform="translate(269.14 63.9) rotate(-36.48)">O</text>
        <text class="cls-4" transform="matrix(0.85, -0.52, 0.52, 0.85, 274.78, 82.95)">
        </text>
        <text class="cls-4" transform="matrix(0.87, -0.49, 0.49, 0.87, 277.15, 86.83)">
        </text>
        <text class="cls-5" transform="matrix(0.91, -0.41, 0.41, 0.91, 285.39, 87.5)">U</text>
        <text class="cls-5" transform="matrix(0.96, -0.28, 0.28, 0.96, 293.26, 104.93)">N</text>
        <text class="cls-5" transform="translate(298.56 123.3) rotate(-7.81)">L</text>
        <text class="cls-5" transform="matrix(1, 0, 0, 1, 301.18, 142.25)">O</text>
        <text class="cls-5" transform="translate(301.13 161.37) rotate(8.37)">C</text>
        <text class="cls-5" transform="matrix(0.96, 0.29, -0.29, 0.96, 298.37, 180.32)">K</text>
    </g>
</g>
</svg>
